output/systolicArray_trace.vcd
$date
     Dec 14, 2023       15:30:03
$end

$version
 SystemC 2.3.1-Accellera --- Apr 18 2023 14:00:41
$end

$timescale
     1 ps
$end

$scope module SystemC $end
$var wire    1  aaaaa  clk       $end
$var wire    1  aaaab  rst       $end
$var wire    3  aaaac  sysDp_count_init [2:0]  $end
$var wire    3  aaaad  sysDp_count_val [2:0]  $end
$var wire    1  aaaae  startPE       $end
$var wire    1  aaaaf  busyPE       $end
$var wire    1  aaaag  startLoading       $end
$var wire    1  aaaah  startCalc       $end
$var wire    2  aaaai  sysCT_present_state [1:0]  $end
$var wire    8  aaaaj  Din(0) [7:0]  $end
$var wire    8  aaaak  Din(1) [7:0]  $end
$var wire    8  aaaal  Din(2) [7:0]  $end
$var wire    8  aaaam  DReg_PE(0)(0) [7:0]  $end
$var wire    8  aaaan  DReg_PE(0)(1) [7:0]  $end
$var wire    8  aaaao  DReg_PE(0)(2) [7:0]  $end
$var wire    8  aaaap  DReg_PE(1)(0) [7:0]  $end
$var wire    8  aaaaq  DReg_PE(1)(1) [7:0]  $end
$var wire    8  aaaar  DReg_PE(1)(2) [7:0]  $end
$var wire    8  aaaas  DReg_PE(2)(0) [7:0]  $end
$var wire    8  aaaat  DReg_PE(2)(1) [7:0]  $end
$var wire    8  aaaau  DReg_PE(2)(2) [7:0]  $end
$var wire   24  aaaav  Sout_final(0) [23:0]  $end
$var wire   24  aaaaw  Sout_final(1) [23:0]  $end
$var wire   24  aaaax  Sout_final(2) [23:0]  $end
$var wire    1  aaaay  sysDp_count_en       $end
$var wire   24  aaaaz  Sout_PE(2)(2) [23:0]  $end
$var wire   24  aaaba  Sout_PE(2)(1) [23:0]  $end
$var wire   24  aaabb  Sout_PE(2)(0) [23:0]  $end
$var wire   24  aaabc  Sout_PE(1)(2) [23:0]  $end
$var wire   24  aaabd  Sout_PE(1)(1) [23:0]  $end
$var wire   24  aaabe  Sout_PE(1)(0) [23:0]  $end
$var wire   24  aaabf  Sout_PE(0)(2) [23:0]  $end
$var wire   24  aaabg  Sout_PE(0)(1) [23:0]  $end
$var wire   24  aaabh  Sout_PE(0)(0) [23:0]  $end
$upscope $end
$enddefinitions  $end

$comment
All initial values are dumped below at time 0 sec = 0 timescale units.
$end

$dumpvars
xaaaaa
xaaaab
b0 aaaac
b100 aaaad
0aaaae
0aaaaf
0aaaag
0aaaah
b0 aaaai
bXXXXXXXX aaaaj
bXXXXXXXX aaaak
bXXXXXXXX aaaal
bXXXXXXXX aaaam
bXXXXXXXX aaaan
bXXXXXXXX aaaao
bXXXXXXXX aaaap
bXXXXXXXX aaaaq
bXXXXXXXX aaaar
bXXXXXXXX aaaas
bXXXXXXXX aaaat
bXXXXXXXX aaaau
bXXXXXXXXXXXXXXXXXXXXXXXX aaaav
bXXXXXXXXXXXXXXXXXXXXXXXX aaaaw
bXXXXXXXXXXXXXXXXXXXXXXXX aaaax
0aaaay
bXXXXXXXXXXXXXXXXXXXXXXXX aaaaz
bXXXXXXXXXXXXXXXXXXXXXXXX aaaba
bXXXXXXXXXXXXXXXXXXXXXXXX aaabb
bXXXXXXXXXXXXXXXXXXXXXXXX aaabc
bXXXXXXXXXXXXXXXXXXXXXXXX aaabd
bXXXXXXXXXXXXXXXXXXXXXXXX aaabe
bXXXXXXXXXXXXXXXXXXXXXXXX aaabf
bXXXXXXXXXXXXXXXXXXXXXXXX aaabg
bXXXXXXXXXXXXXXXXXXXXXXXX aaabh
$end

#5000
0aaaaa

#10000
1aaaaa
1aaaab
b0 aaaad
b0 aaaaj
b0 aaaak
b0 aaaal
b0 aaaam
b0 aaaan
b0 aaaao
b0 aaaap
b0 aaaaq
b0 aaaar
b0 aaaas
b0 aaaat
b0 aaaau
b0 aaaav
b0 aaaaw
b0 aaaax
b0 aaaaz
b0 aaaba
b0 aaabb
b0 aaabc
b0 aaabd
b0 aaabe
b0 aaabf
b0 aaabg
b0 aaabh

#15000
0aaaaa

#20000
1aaaaa

#25000
0aaaaa

#29000
0aaaab

#30000
1aaaaa

#35000
0aaaaa

#40000
1aaaaa

#45000
0aaaaa

#50000
1aaaaa

#55000
0aaaaa

#60000
1aaaaa

#65000
0aaaaa

#70000
1aaaaa

#75000
0aaaaa

#80000
1aaaaa

#85000
0aaaaa

#90000
1aaaaa

#95000
0aaaaa
1aaaag

#100000
1aaaaa
b100 aaaac
b1 aaaai

#105000
0aaaaa

#110000
1aaaaa
b0 aaaac
b101 aaaad
1aaaae
b10 aaaai
1aaaay

#115000
0aaaaa

#120000
1aaaaa
b110 aaaad

#125000
0aaaaa
0aaaag

#130000
1aaaaa
b111 aaaad

#135000
0aaaaa

#140000
1aaaaa
b0 aaaad
0aaaae
b0 aaaai
0aaaay

